oude_metingen/doppler broad 7 dec.csv

Record Length,2500,Points,59.599999338E-3,2.0800000E-3,
Sample Interval,39.99999899E-6,s,59.639997780E-3,2.5599999E-3,
Trigger Point,-1.4900001E3,Samples,59.679999948E-3,2.71999999E-3,
,,,59.719998389E-3,2.6399998E-3,
,,,59.760000557E-3,2.6399998E-3,
,,,59.799998999E-3,2.6399998E-3,
Source,CH1,,59.840001166E-3,2.5599999E-3,
Vertical Units,Volts,,59.879999608E-3,2.6399998E-3,
Vertical Scale,1.9999999E-3,,59.919998050E-3,2.4800000E-3,
Vertical Offset,0,,59.960000217E-3,2.95999995E-3,
Horizontal Units,s,,59.999998659E-3,2.1599999E-3,
Horizontal Scale,9.999999747E-3,,60.040000826E-3,2.5599999E-3,
Pt Fmt,Y,,60.079999268E-3,2.3200000E-3,
Yzero,1.0800000,,60.119997710E-3,2.3999999E-3,
Probe Atten,1.000000,,60.159999877E-3,2.3200000E-3,
,,,60.199998319E-3,2.3200000E-3,
Note,TDS 2024B - 14:58:05   7-12-2023,,60.240000486E-3,2.0800000E-3,
,,,60.279998928E-3,2.6399998E-3,
,,,60.320001096E-3,2.4800000E-3,
,,,60.359999537E-3,2.6399998E-3,
,,,60.399997979E-3,1.9999999E-3,
,,,60.440000147E-3,2.6399998E-3,
,,,60.479998589E-3,2.3200000E-3,
,,,60.520000756E-3,2.5599999E-3,
,,,60.559999198E-3,2.6399998E-3,
,,,60.599997640E-3,2.95999995E-3,
,,,60.639999807E-3,2.5599999E-3,
,,,60.679998249E-3,2.3200000E-3,
,,,60.720000416E-3,2.2399998E-3,
,,,60.759998858E-3,2.6399998E-3,
,,,60.800001025E-3,2.6399998E-3,
,,,60.839999467E-3,2.6399998E-3,
,,,60.879997909E-3,2.5599999E-3,
,,,60.920000076E-3,2.79999990E-3,
,,,60.959998518E-3,2.2399998E-3,
,,,61.000000685E-3,2.5599999E-3,
,,,61.039999127E-3,2.2399998E-3,
,,,61.079997569E-3,2.6399998E-3,
,,,61.119999737E-3,2.95999995E-3,
,,,61.159998178E-3,2.3200000E-3,
,,,61.200000346E-3,2.4800000E-3,
,,,61.239998788E-3,2.5599999E-3,
,,,61.280000955E-3,2.1599999E-3,
,,,61.319999397E-3,2.3200000E-3,
,,,61.359997839E-3,2.3999999E-3,
,,,61.400000006E-3,2.6399998E-3,
,,,61.439998448E-3,2.2399998E-3,
,,,61.480000615E-3,2.5599999E-3,
,,,61.519999057E-3,2.3999999E-3,
,,,61.559997499E-3,2.5599999E-3,
,,,61.599999666E-3,2.6399998E-3,
,,,61.639998108E-3,2.3999999E-3,
,,,61.680000275E-3,2.3200000E-3,
,,,61.719998717E-3,2.4800000E-3,
,,,61.760000885E-3,2.1599999E-3,
,,,61.799999326E-3,2.3999999E-3,
,,,61.839997768E-3,2.3200000E-3,
,,,61.879999936E-3,2.1599999E-3,
,,,61.919998378E-3,2.2399998E-3,
,,,61.960000545E-3,2.0800000E-3,
,,,61.999998987E-3,2.3200000E-3,
,,,62.039997429E-3,2.3200000E-3,
,,,62.079999596E-3,2.3200000E-3,
,,,62.119998038E-3,2.3200000E-3,
,,,62.160000205E-3,2.6399998E-3,
,,,62.199998647E-3,2.4800000E-3,
,,,62.240000814E-3,2.3200000E-3,
,,,62.279999256E-3,2.4800000E-3,
,,,62.319997698E-3,2.3200000E-3,
,,,62.359999865E-3,2.3999999E-3,
,,,62.399998307E-3,2.6399998E-3,
,,,62.440000474E-3,2.4800000E-3,
,,,62.479998916E-3,1.9200000E-3,
,,,62.519997358E-3,2.5599999E-3,
,,,62.559999526E-3,2.5599999E-3,
,,,62.600001693E-3,2.2399998E-3,
,,,62.639996409E-3,2.4800000E-3,
,,,62.679998577E-3,2.3999999E-3,
,,,62.720000744E-3,2.0800000E-3,
,,,62.760002911E-3,2.4800000E-3,
,,,62.799997628E-3,2.5599999E-3,
,,,62.839999795E-3,2.0800000E-3,
,,,62.880001962E-3,2.5599999E-3,
,,,62.919996679E-3,2.3200000E-3,
,,,62.959998846E-3,2.4800000E-3,
,,,63.000001013E-3,2.5599999E-3,
,,,63.039995730E-3,2.1599999E-3,
,,,63.079997897E-3,2.1599999E-3,
,,,63.120000064E-3,2.3200000E-3,
,,,63.160002232E-3,2.3200000E-3,
,,,63.199996948E-3,2.6399998E-3,
,,,63.239999115E-3,2.5599999E-3,
,,,63.280001283E-3,2.1599999E-3,
,,,63.319995999E-3,2.6399998E-3,
,,,63.359998167E-3,2.3999999E-3,
,,,63.400000334E-3,2.3999999E-3,
,,,63.440002501E-3,2.3200000E-3,
,,,63.479997218E-3,2.4800000E-3,
,,,63.519999385E-3,2.3200000E-3,
,,,63.560001552E-3,2.3999999E-3,
,,,63.599996269E-3,2.2399998E-3,
,,,63.639998436E-3,2.4800000E-3,
,,,63.680000603E-3,2.4800000E-3,
,,,63.720002770E-3,2.3200000E-3,
,,,63.759997487E-3,1.9999999E-3,
,,,63.799999654E-3,2.1599999E-3,
,,,63.840001822E-3,2.3999999E-3,
,,,63.879996538E-3,2.3200000E-3,
,,,63.919998705E-3,2.3200000E-3,
,,,63.960000873E-3,2.3200000E-3,
,,,63.999995589E-3,2.3200000E-3,
,,,64.039997756E-3,2.3200000E-3,
,,,64.079999924E-3,2.3200000E-3,
,,,64.120002091E-3,2.0800000E-3,
,,,64.159996808E-3,2.3200000E-3,
,,,64.199998975E-3,2.0800000E-3,
,,,64.240001142E-3,1.7599999E-3,
,,,64.279995859E-3,1.8399999E-3,
,,,64.319998026E-3,1.8399999E-3,
,,,64.360000193E-3,2.2399998E-3,
,,,64.400002360E-3,2.4800000E-3,
,,,64.439997077E-3,2.4800000E-3,
,,,64.479999244E-3,2.5599999E-3,
,,,64.520001411E-3,2.2399998E-3,
,,,64.559996128E-3,2.3200000E-3,
,,,64.599998295E-3,2.3200000E-3,
,,,64.640000463E-3,2.2399998E-3,
,,,64.680002630E-3,2.0800000E-3,
,,,64.719997346E-3,2.2399998E-3,
,,,64.759999514E-3,2.4800000E-3,
,,,64.800001681E-3,2.5599999E-3,
,,,64.839996397E-3,2.0800000E-3,
,,,64.879998565E-3,2.3999999E-3,
,,,64.920000732E-3,2.4800000E-3,
,,,64.960002899E-3,1.9200000E-3,
,,,64.999997616E-3,2.3999999E-3,
,,,65.039999783E-3,1.9999999E-3,
,,,65.080001950E-3,2.3999999E-3,
,,,65.119996667E-3,2.3999999E-3,
,,,65.159998834E-3,1.8399999E-3,
,,,65.200001001E-3,2.6399998E-3,
,,,65.239995718E-3,2.0800000E-3,
,,,65.279997885E-3,2.3200000E-3,
,,,65.320000052E-3,2.3200000E-3,
,,,65.360002220E-3,2.2399998E-3,
,,,65.399996936E-3,2.0800000E-3,
,,,65.439999104E-3,2.2399998E-3,
,,,65.480001271E-3,2.5599999E-3,
,,,65.519995987E-3,2.5599999E-3,
,,,65.559998155E-3,2.3200000E-3,
,,,65.600000322E-3,1.9200000E-3,
,,,65.640002489E-3,2.3999999E-3,
,,,65.679997206E-3,2.5599999E-3,
,,,65.719999373E-3,2.3999999E-3,
,,,65.760001540E-3,1.7599999E-3,
,,,65.799996257E-3,2.2399998E-3,
,,,65.839998424E-3,2.0800000E-3,
,,,65.880000591E-3,1.6800000E-3,
,,,65.920002759E-3,2.4800000E-3,
,,,65.959997475E-3,2.1599999E-3,
,,,65.999999642E-3,2.1599999E-3,
,,,66.040001810E-3,2.3999999E-3,
,,,66.079996526E-3,2.3999999E-3,
,,,66.119998693E-3,2.2399998E-3,
,,,66.160000861E-3,2.2399998E-3,
,,,66.199995577E-3,2.3999999E-3,
,,,66.239997745E-3,1.9999999E-3,
,,,66.279999912E-3,2.3999999E-3,
,,,66.320002079E-3,2.2399998E-3,
,,,66.359996796E-3,1.9200000E-3,
,,,66.399998963E-3,2.3200000E-3,
,,,66.440001130E-3,1.9200000E-3,
,,,66.479995847E-3,2.3999999E-3,
,,,66.519998014E-3,2.3200000E-3,
,,,66.560000181E-3,2.3200000E-3,
,,,66.600002348E-3,2.0800000E-3,
,,,66.639997065E-3,1.6800000E-3,
,,,66.679999232E-3,2.0800000E-3,
,,,66.720001400E-3,2.3200000E-3,
,,,66.759996116E-3,2.4800000E-3,
,,,66.799998283E-3,1.8399999E-3,
,,,66.840000451E-3,1.9999999E-3,
,,,66.880002618E-3,2.0800000E-3,
,,,66.919997334E-3,2.2399998E-3,
,,,66.959999502E-3,2.4800000E-3,
,,,67.000001669E-3,1.9999999E-3,
,,,67.039996386E-3,2.6399998E-3,
,,,67.079998553E-3,2.3200000E-3,
,,,67.120000720E-3,1.9999999E-3,
,,,67.159995437E-3,2.3200000E-3,
,,,67.199997604E-3,1.9999999E-3,
,,,67.239999771E-3,1.9200000E-3,
,,,67.280001938E-3,2.0800000E-3,
,,,67.319996655E-3,2.1599999E-3,
,,,67.359998822E-3,1.9999999E-3,
,,,67.400000989E-3,1.8399999E-3,
,,,67.439995706E-3,2.2399998E-3,
,,,67.479997873E-3,1.9999999E-3,
,,,67.520000041E-3,2.0800000E-3,
,,,67.560002208E-3,2.2399998E-3,
,,,67.599996924E-3,2.0800000E-3,
,,,67.639999092E-3,1.6800000E-3,
,,,67.680001259E-3,2.0800000E-3,
,,,67.719995975E-3,1.9999999E-3,
,,,67.759998143E-3,2.5599999E-3,
,,,67.800000310E-3,1.7599999E-3,
,,,67.840002477E-3,2.2399998E-3,
,,,67.879997194E-3,1.9200000E-3,
,,,67.919999361E-3,1.4400000E-3,
,,,67.960001528E-3,1.4400000E-3,
,,,67.999996245E-3,1.2800000E-3,
,,,68.039998412E-3,1.7599999E-3,
,,,68.080000579E-3,2.0800000E-3,
,,,68.120002747E-3,2.0800000E-3,
,,,68.159997463E-3,2.4800000E-3,
,,,68.199999630E-3,1.9200000E-3,
,,,68.240001798E-3,1.9200000E-3,
,,,68.279996514E-3,1.8399999E-3,
,,,68.319998682E-3,2.1599999E-3,
,,,68.360000849E-3,2.0800000E-3,
,,,68.399995565E-3,1.6000000E-3,
,,,68.439997733E-3,2.0800000E-3,
,,,68.479999900E-3,2.0800000E-3,
,,,68.520002067E-3,2.1599999E-3,
,,,68.559996784E-3,1.6800000E-3,
,,,68.599998951E-3,1.9200000E-3,
,,,68.640001118E-3,1.7599999E-3,
,,,68.679995835E-3,1.8399999E-3,
,,,68.719998002E-3,1.7599999E-3,
,,,68.760000169E-3,1.8399999E-3,
,,,68.800002337E-3,2.0800000E-3,
,,,68.839997053E-3,2.3200000E-3,
,,,68.879999220E-3,1.7599999E-3,
,,,68.920001388E-3,1.9200000E-3,
,,,68.959996104E-3,1.6800000E-3,
,,,68.999998271E-3,2.0800000E-3,
,,,69.040000439E-3,1.7599999E-3,
,,,69.080002606E-3,1.9200000E-3,
,,,69.119997323E-3,1.6800000E-3,
,,,69.159999490E-3,1.6000000E-3,
,,,69.200001657E-3,1.6800000E-3,
,,,69.239996374E-3,1.7599999E-3,
,,,69.279998541E-3,2.0800000E-3,
,,,69.320000708E-3,1.6000000E-3,
,,,69.359995425E-3,2.0800000E-3,
,,,69.399997592E-3,1.8399999E-3,
,,,69.439999759E-3,1.6800000E-3,
,,,69.480001926E-3,1.7599999E-3,
,,,69.519996643E-3,1.1999999E-3,
,,,69.559998810E-3,1.1999999E-3,
,,,69.600000978E-3,1.8399999E-3,
,,,69.639995694E-3,1.7599999E-3,
,,,69.679997861E-3,1.6800000E-3,
,,,69.720000029E-3,1.4400000E-3,
,,,69.760002196E-3,1.6000000E-3,
,,,69.799996912E-3,1.6800000E-3,
,,,69.839999080E-3,1.5199999E-3,
,,,69.880001247E-3,1.5199999E-3,
,,,69.919995964E-3,1.8399999E-3,
,,,69.959998131E-3,1.5199999E-3,
,,,70.000000298E-3,1.3600000E-3,
,,,70.040002465E-3,1.6800000E-3,
,,,70.079997182E-3,1.6800000E-3,
,,,70.119999349E-3,1.6000000E-3,
,,,70.160001516E-3,1.9999999E-3,
,,,70.199996233E-3,1.4400000E-3,
,,,70.239998400E-3,1.9999999E-3,
,,,70.280000567E-3,1.2800000E-3,
,,,70.320002735E-3,1.4400000E-3,
,,,70.359997451E-3,959.999975748E-6,
,,,70.399999619E-3,1.7599999E-3,
,,,70.440001786E-3,1.4400000E-3,
,,,70.479996502E-3,1.5199999E-3,
,,,70.519998670E-3,1.1999999E-3,
,,,70.560000837E-3,1.3600000E-3,
,,,70.599995553E-3,1.4400000E-3,
,,,70.639997721E-3,1.1999999E-3,
,,,70.679999888E-3,1.1199999E-3,
,,,70.720002055E-3,1.4400000E-3,
,,,70.759996772E-3,1.3600000E-3,
,,,70.799998939E-3,959.999975748E-6,
,,,70.840001106E-3,1.6000000E-3,
,,,70.879995823E-3,1.4400000E-3,
,,,70.919997990E-3,1.1999999E-3,
,,,70.960000157E-3,1.1999999E-3,
,,,71.000002325E-3,1.2800000E-3,
,,,71.039997041E-3,1.1999999E-3,
,,,71.079999208E-3,1.1199999E-3,
,,,71.120001376E-3,959.999975748E-6,
,,,71.159996092E-3,1.1999999E-3,
,,,71.199998260E-3,1.2800000E-3,
,,,71.240000427E-3,1.4400000E-3,
,,,71.280002594E-3,1.1999999E-3,
,,,71.319997311E-3,1.0400000E-3,
,,,71.359999478E-3,1.1999999E-3,
,,,71.400001645E-3,720.000010915E-6,
,,,71.439996362E-3,1.1999999E-3,
,,,71.479998529E-3,1.1199999E-3,
,,,71.520000696E-3,639.999983832E-6,
,,,71.559995413E-3,1.0400000E-3,
,,,71.599997580E-3,639.999983832E-6,
,,,71.639999747E-3,639.999983832E-6,
,,,71.680001915E-3,720.000010915E-6,
,,,71.719996631E-3,479.999987874E-6,
,,,71.759998798E-3,799.999979790E-6,
,,,71.800000966E-3,799.999979790E-6,
,,,71.839995682E-3,799.999979790E-6,
,,,71.879997849E-3,1.0400000E-3,
,,,71.920000017E-3,799.999979790E-6,
,,,71.960002184E-3,959.999975748E-6,
,,,71.999996901E-3,959.999975748E-6,
,,,72.039999068E-3,799.999979790E-6,
,,,72.080001235E-3,1.0400000E-3,
,,,72.119995952E-3,479.999987874E-6,
,,,72.159998119E-3,639.999983832E-6,
,,,72.200000286E-3,239.99999394E-6,
,,,72.240002453E-3,559.999956749E-6,
,,,72.279997170E-3,959.999975748E-6,
,,,72.319999337E-3,799.999979790E-6,
,,,72.360001504E-3,639.999983832E-6,
,,,72.399996221E-3,319.99999192E-6,
,,,72.439998388E-3,559.999956749E-6,
,,,72.480000556E-3,479.999987874E-6,
,,,72.520002723E-3,239.99999394E-6,
,,,72.559997439E-3,319.99999192E-6,
,,,72.599999607E-3,799.999979790E-6,
,,,72.640001774E-3,479.999987874E-6,
,,,72.679996490E-3,319.99999192E-6,
,,,72.719998658E-3,479.999987874E-6,
,,,72.760000825E-3,559.999956749E-6,
,,,72.799995542E-3,639.999983832E-6,
,,,72.839997709E-3,479.999987874E-6,
,,,72.879999876E-3,479.999987874E-6,
,,,72.920002043E-3,479.999987874E-6,
,,,72.959996760E-3,559.999956749E-6,
,,,72.999998927E-3,319.99999192E-6,
,,,73.040001094E-3,319.99999192E-6,
,,,73.079995811E-3,879.999948665E-6,
,,,73.119997978E-3,319.99999192E-6,
,,,73.160000145E-3,0.0,
,,,73.200002313E-3,159.99999596E-6,
,,,73.239997029E-3,79.999997979E-6,
,,,73.279999197E-3,159.99999596E-6,
,,,73.320001364E-3,-239.99999394E-6,
,,,73.359996080E-3,319.99999192E-6,
,,,73.399998248E-3,-79.999997979E-6,
,,,73.440000415E-3,319.99999192E-6,
,,,73.480002582E-3,399.99998990E-6,
,,,73.519997299E-3,319.99999192E-6,
,,,73.559999466E-3,0.0,
,,,73.600001633E-3,159.99999596E-6,
,,,73.639996350E-3,79.999997979E-6,
,,,73.679998517E-3,0.0,
,,,73.720000684E-3,-319.99999192E-6,
,,,73.759995401E-3,0.0,
,,,73.799997568E-3,0.0,
,,,73.839999735E-3,-319.99999192E-6,
,,,73.880001903E-3,319.99999192E-6,
,,,73.919996619E-3,0.0,
,,,73.959998786E-3,-79.999997979E-6,
,,,74.000000954E-3,319.99999192E-6,
,,,74.039995670E-3,0.0,
,,,74.079997838E-3,-479.999987874E-6,
,,,74.120000005E-3,-239.99999394E-6,
,,,74.160002172E-3,-239.99999394E-6,
,,,74.199996889E-3,0.0,
,,,74.239999056E-3,-159.99999596E-6,
,,,74.280001223E-3,-559.999956749E-6,
,,,74.319995940E-3,79.999997979E-6,
,,,74.359998107E-3,159.99999596E-6,
,,,74.400000274E-3,-399.99998990E-6,
,,,74.440002441E-3,-319.99999192E-6,
,,,74.479997158E-3,-319.99999192E-6,
,,,74.519999325E-3,-239.99999394E-6,
,,,74.560001493E-3,-479.999987874E-6,
,,,74.599996209E-3,0.0,
,,,74.639998376E-3,-559.999956749E-6,
,,,74.680000544E-3,-399.99998990E-6,
,,,74.719995260E-3,-159.99999596E-6,
,,,74.759997427E-3,-879.999948665E-6,
,,,74.799999595E-3,-479.999987874E-6,
,,,74.840001762E-3,-559.999956749E-6,
,,,74.879996479E-3,-319.99999192E-6,
,,,74.919998646E-3,-399.99998990E-6,
,,,74.960000813E-3,-559.999956749E-6,
,,,74.999995530E-3,-159.99999596E-6,
,,,75.039997697E-3,-319.99999192E-6,
,,,75.079999864E-3,-879.999948665E-6,
,,,75.120002031E-3,-399.99998990E-6,
,,,75.159996748E-3,-79.999997979E-6,
,,,75.199998915E-3,-559.999956749E-6,
,,,75.240001082E-3,-559.999956749E-6,
,,,75.279995799E-3,-319.99999192E-6,
,,,75.319997966E-3,79.999997979E-6,
,,,75.360000134E-3,-399.99998990E-6,
,,,75.400002301E-3,-319.99999192E-6,
,,,75.439997017E-3,-79.999997979E-6,
,,,75.479999185E-3,-319.99999192E-6,
,,,75.520001352E-3,0.0,
,,,75.559996068E-3,-399.99998990E-6,
,,,75.599998236E-3,-319.99999192E-6,
,,,75.640000403E-3,-399.99998990E-6,
,,,75.680002570E-3,-319.99999192E-6,
,,,75.719997287E-3,-319.99999192E-6,
,,,75.759999454E-3,-159.99999596E-6,
,,,75.800001621E-3,-79.999997979E-6,
,,,75.839996338E-3,-159.99999596E-6,
,,,75.879998505E-3,-399.99998990E-6,
,,,75.920000672E-3,-319.99999192E-6,
,,,75.959995389E-3,-79.999997979E-6,
,,,75.999997556E-3,79.999997979E-6,
,,,76.039999723E-3,-399.99998990E-6,
,,,76.080001891E-3,0.0,
,,,76.119996607E-3,-79.999997979E-6,
,,,76.159998775E-3,-399.99998990E-6,
,,,76.200000942E-3,-79.999997979E-6,
,,,76.239995658E-3,79.999997979E-6,
,,,76.279997826E-3,-799.999979790E-6,
,,,76.319999993E-3,0.0,
,,,76.360002160E-3,-479.999987874E-6,
,,,76.399996877E-3,-479.999987874E-6,
,,,76.439999044E-3,159.99999596E-6,
,,,76.480001211E-3,-720.000010915E-6,
,,,76.519995928E-3,-319.99999192E-6,
,,,76.559998095E-3,-319.99999192E-6,
,,,76.600000262E-3,-479.999987874E-6,
,,,76.640002429E-3,-399.99998990E-6,
,,,76.679997146E-3,-319.99999192E-6,
,,,76.719999313E-3,-479.999987874E-6,
,,,76.760001481E-3,-479.999987874E-6,
,,,76.799996197E-3,-79.999997979E-6,
,,,76.839998364E-3,239.99999394E-6,
,,,76.880000532E-3,319.99999192E-6,
,,,76.919995248E-3,-639.999983832E-6,
,,,76.959997416E-3,-159.99999596E-6,
,,,76.999999583E-3,79.999997979E-6,
,,,77.040001750E-3,0.0,
,,,77.079996467E-3,159.99999596E-6,
,,,77.119998634E-3,-159.99999596E-6,
,,,77.160000801E-3,-559.999956749E-6,
,,,77.199995518E-3,-159.99999596E-6,
,,,77.239997685E-3,79.999997979E-6,
,,,77.279999852E-3,-639.999983832E-6,
,,,77.320002019E-3,559.999956749E-6,
,,,77.359996736E-3,-319.99999192E-6,
,,,77.399998903E-3,319.99999192E-6,
,,,77.440001070E-3,159.99999596E-6,
,,,77.479995787E-3,0.0,
,,,77.519997954E-3,319.99999192E-6,
,,,77.560000122E-3,-239.99999394E-6,
,,,77.600002289E-3,79.999997979E-6,
,,,77.639997005E-3,239.99999394E-6,
,,,77.679999173E-3,-159.99999596E-6,
,,,77.720001340E-3,0.0,
,,,77.759996057E-3,319.99999192E-6,
,,,77.799998224E-3,399.99998990E-6,
,,,77.840000391E-3,319.99999192E-6,
,,,77.880002558E-3,79.999997979E-6,
,,,77.919997275E-3,559.999956749E-6,
,,,77.959999442E-3,559.999956749E-6,
,,,78.000001609E-3,559.999956749E-6,
,,,78.039996326E-3,639.999983832E-6,
,,,78.079998493E-3,879.999948665E-6,
,,,78.120000660E-3,0.0,
,,,78.159995377E-3,559.999956749E-6,
,,,78.199997544E-3,-79.999997979E-6,
,,,78.239999712E-3,0.0,
,,,78.280001879E-3,559.999956749E-6,
,,,78.319996595E-3,319.99999192E-6,
,,,78.359998763E-3,799.999979790E-6,
,,,78.400000930E-3,639.999983832E-6,
,,,78.439995646E-3,479.999987874E-6,
,,,78.479997814E-3,1.1199999E-3,
,,,78.519999981E-3,399.99998990E-6,
,,,78.560002148E-3,319.99999192E-6,
,,,78.599996865E-3,879.999948665E-6,
,,,78.639999032E-3,720.000010915E-6,
,,,78.680001199E-3,319.99999192E-6,
,,,78.719995916E-3,879.999948665E-6,
,,,78.759998083E-3,319.99999192E-6,
,,,78.800000250E-3,479.999987874E-6,
,,,78.840002418E-3,559.999956749E-6,
,,,78.879997134E-3,399.99998990E-6,
,,,78.919999301E-3,799.999979790E-6,
,,,78.960001469E-3,559.999956749E-6,
,,,78.999996185E-3,720.000010915E-6,
,,,79.039998353E-3,639.999983832E-6,
,,,79.080000520E-3,879.999948665E-6,
,,,79.119995236E-3,720.000010915E-6,
,,,79.159997404E-3,879.999948665E-6,
,,,79.199999571E-3,559.999956749E-6,
,,,79.240001738E-3,319.99999192E-6,
,,,79.279996455E-3,879.999948665E-6,
,,,79.319998622E-3,1.1199999E-3,
,,,79.360000789E-3,879.999948665E-6,
,,,79.399995506E-3,559.999956749E-6,
,,,79.439997673E-3,479.999987874E-6,
,,,79.479999840E-3,879.999948665E-6,
,,,79.520002007E-3,479.999987874E-6,
,,,79.559996724E-3,639.999983832E-6,
,,,79.599998891E-3,799.999979790E-6,
,,,79.640001059E-3,879.999948665E-6,
,,,79.679995775E-3,1.1999999E-3,
,,,79.719997942E-3,879.999948665E-6,
,,,79.760000110E-3,879.999948665E-6,
,,,79.800002277E-3,879.999948665E-6,
,,,79.839996994E-3,559.999956749E-6,
,,,79.879999161E-3,799.999979790E-6,
,,,79.920001328E-3,720.000010915E-6,
,,,79.959996045E-3,639.999983832E-6,
,,,79.999998212E-3,1.0400000E-3,
,,,80.040000379E-3,959.999975748E-6,
,,,80.080002546E-3,1.1999999E-3,
,,,80.119997263E-3,720.000010915E-6,
,,,80.159999430E-3,1.0400000E-3,
,,,80.200001597E-3,879.999948665E-6,
,,,80.239996314E-3,799.999979790E-6,
,,,80.279998481E-3,959.999975748E-6,
,,,80.320000648E-3,1.2800000E-3,
,,,80.359995365E-3,319.99999192E-6,
,,,80.399997532E-3,879.999948665E-6,
,,,80.439999700E-3,1.4400000E-3,
,,,80.480001867E-3,959.999975748E-6,
,,,80.519996583E-3,1.1999999E-3,
,,,80.559998751E-3,1.1999999E-3,
,,,80.600000918E-3,1.2800000E-3,
,,,80.639995635E-3,1.1999999E-3,
,,,80.679997802E-3,559.999956749E-6,
,,,80.719999969E-3,1.0400000E-3,
,,,80.760002136E-3,1.0400000E-3,
,,,80.799996853E-3,1.1999999E-3,
,,,80.839999020E-3,879.999948665E-6,
,,,80.880001187E-3,1.2800000E-3,
,,,80.919995904E-3,1.1199999E-3,
,,,80.959998071E-3,1.1199999E-3,
,,,81.000000238E-3,959.999975748E-6,
,,,81.040002406E-3,1.1199999E-3,
,,,81.079997122E-3,1.1999999E-3,
,,,81.119999290E-3,959.999975748E-6,
,,,81.160001457E-3,879.999948665E-6,
,,,81.199996173E-3,720.000010915E-6,
,,,81.239998341E-3,1.1999999E-3,
,,,81.280000508E-3,1.1199999E-3,
,,,81.319995224E-3,1.0400000E-3,
,,,81.359997392E-3,959.999975748E-6,
,,,81.399999559E-3,1.1199999E-3,
,,,81.440001726E-3,1.1999999E-3,
,,,81.479996443E-3,879.999948665E-6,
,,,81.519998610E-3,879.999948665E-6,
,,,81.560000777E-3,879.999948665E-6,
,,,81.599995494E-3,879.999948665E-6,
,,,81.639997661E-3,1.4400000E-3,
,,,81.679999828E-3,1.0400000E-3,
,,,81.720001996E-3,1.3600000E-3,
,,,81.759996712E-3,1.0400000E-3,
,,,81.799998879E-3,1.0400000E-3,
,,,81.840001047E-3,1.1999999E-3,
,,,81.879995763E-3,1.1999999E-3,
,,,81.919997931E-3,799.999979790E-6,
,,,81.960000098E-3,720.000010915E-6,
,,,82.000002265E-3,1.0400000E-3,
,,,82.039996982E-3,799.999979790E-6,
,,,82.079999149E-3,1.1999999E-3,
,,,82.120001316E-3,1.1199999E-3,
,,,82.159996033E-3,959.999975748E-6,
,,,82.199998200E-3,799.999979790E-6,
,,,82.240000367E-3,559.999956749E-6,
,,,82.279995084E-3,959.999975748E-6,
,,,82.319997251E-3,559.999956749E-6,
,,,82.359999418E-3,879.999948665E-6,
,,,82.400001585E-3,959.999975748E-6,
,,,82.439996302E-3,799.999979790E-6,
,,,82.479998469E-3,639.999983832E-6,
,,,82.520000637E-3,559.999956749E-6,
,,,82.559995353E-3,559.999956749E-6,
